<?xml version="1.0" encoding="utf-8"?>
<!-- This URDF was automatically created by SolidWorks to URDF Exporter! Originally created by Stephen Brawner (brawner@gmail.com) 
     Commit Version: 1.6.0-1-g15f4949  Build Version: 1.6.7594.29634
     For more information, please see http://wiki.ros.org/sw_urdf_exporter -->
<robot  xmlns:xacro="http://www.ros.org/wiki/xacro" 
 	xmlns:sensor="http://playerstage.sourceforge.net/gazebo/xmlschema/#sensor"
    	xmlns:controller="http://playerstage.sourceforge.net/gazebo/xmlschema/#controller"
    	xmlns:interface="http://playerstage.sourceforge.net/gazebo/xmlschema/#interface"
  name="Telescope1_Description">

   <xacro:macro name="transmission_block" params="joint_name">
	  <transmission name="tran1">
	    <type>transmission_interface/SimpleTransmission</type>
	    <joint name="${joint_name}">
	      <hardwareInterface>hardware_interface/PositionJointInterface</hardwareInterface>
	    </joint>
	    <actuator name="motor1">
	      <hardwareInterface>hardware_interface/PositionJointInterface</hardwareInterface>
	      <mechanicalReduction>1</mechanicalReduction>
	    </actuator>
	  </transmission>
   </xacro:macro>

  <link
    name="Base_Link">
    <inertial>
      <origin
        xyz="7.02437108577532E-13 -0.00322472768709717 6.47437768039524E-16"
        rpy="0 0 0" />
      <mass
        value="2.09618613000946" />
      <inertia
        ixx="0.0103389628891074"
        ixy="-2.66615196512842E-14"
        ixz="7.51847570656079E-15"
        iyy="0.020144180304267"
        iyz="-1.28521394596753E-13"
        izz="0.010338962889179" />
    </inertial>
    <visual>
      <origin
        xyz="0 0 0"
        rpy="0 0 0" />
      <geometry>
        <mesh
          filename="package://Telescope1_Description/meshes/Base_Link.STL" />
      </geometry>
      <material
        name="">
        <color
          rgba="0.792156862745098 0.819607843137255 0.933333333333333 1" />
      </material>
    </visual>
    <collision>
      <origin
        xyz="0 0 0"
        rpy="0 0 0" />
      <geometry>
        <mesh
          filename="package://Telescope1_Description/meshes/Base_Link.STL" />
      </geometry>
    </collision>
  </link>
  <link
    name="Link1">
    <inertial>
      <origin
        xyz="-0.0444260483534945 0.117033104096906 0.00172478809200764"
        rpy="0 0 0" />
      <mass
        value="2.77825910693912" />
      <inertia
        ixx="0.023076185527652"
        ixy="-0.00015821931764649"
        ixz="-3.41604039905072E-05"
        iyy="0.0166439797031488"
        iyz="-4.24731549329666E-05"
        izz="0.0202179639943088" />
    </inertial>
    <visual>
      <origin
        xyz="0 0 0"
        rpy="0 0 0" />
      <geometry>
        <mesh
          filename="package://Telescope1_Description/meshes/Link1.STL" />
      </geometry>
      <material
        name="">
        <color
          rgba="0.792156862745098 0.819607843137255 0.933333333333333 1" />
      </material>
    </visual>
    <collision>
      <origin
        xyz="0 0 0"
        rpy="0 0 0" />
      <geometry>
        <mesh
          filename="package://Telescope1_Description/meshes/Link1.STL" />
      </geometry>
    </collision>
  </link>
  <joint
    name="Joint1"
    type="revolute">
    <origin
      xyz="0 0 0"
      rpy="1.5708 0 0" />
    <parent
      link="Base_Link" />
    <child
      link="Link1" />
    <axis
      xyz="0 1 0" />
    <limit
      lower="-1.57"
      upper="1.57"
      effort="15"
      velocity="1" />
  </joint>
  <link
    name="Link2">
    <inertial>
      <origin
        xyz="0.0499146965775696 0.000842192631149374 0.0412028733742924"
        rpy="0 0 0" />
      <mass
        value="2.01354855520789" />
      <inertia
        ixx="0.0444335040431019"
        ixy="-9.63934668474783E-06"
        ixz="-0.000181225282807068"
        iyy="0.0444896547231316"
        iyz="-4.64479400541869E-05"
        izz="0.00652914404800034" />
    </inertial>
    <visual>
      <origin
        xyz="0 0 0"
        rpy="0 0 0" />
      <geometry>
        <mesh
          filename="package://Telescope1_Description/meshes/Link2.STL" />
      </geometry>
      <material
        name="">
        <color
          rgba="0.792156862745098 0.819607843137255 0.933333333333333 1" />
      </material>
    </visual>
    <collision>
      <origin
        xyz="0 0 0"
        rpy="0 0 0" />
      <geometry>
        <mesh
          filename="package://Telescope1_Description/meshes/Link2.STL" />
      </geometry>
    </collision>
  </link>
  <joint
    name="Joint2"
    type="revolute">
    <origin
      xyz="0 0.35325 0"
      rpy="0 0 0" />
    <parent
      link="Link1" />
    <child
      link="Link2" />
    <axis
      xyz="1 0 0" />
    <limit
      lower="-4.05"
      upper="0.9"
      effort="5"
      velocity="1" />
  </joint>
  <xacro:transmission_block joint_name="Joint1"/>
  <xacro:transmission_block joint_name="Joint2"/>
  <gazebo>
	<plugin name="gazebo_ros_control"
		filename="libgazebo_ros_control.so">
		<robotNamespace>/Telescope1_Description</robotNamespace>
	</plugin>
  </gazebo>
</robot>
